^C:\USERS\JASHKOV.V\DOCUMENTS\VISUAL STUDIO 2010\PROJECTS\0818-TASKS-01\TASK2\DEBUG\2.OBJ|C:\USERS\JASHKOV.V\DOCUMENTS\VISUAL STUDIO 2010\PROJECTS\0818-TASKS-01\TASK2\DEBUG\TASK2.EXE.EMBED.MANIFEST.RES
/ERRORREPORT:PROMPT /OUT:"C:\Users\jashkov.v\Documents\Visual Studio 2010\Projects\0818-tasks-01\Debug\task2.exe" /INCREMENTAL /NOLOGO kernel32.lib user32.lib gdi32.lib winspool.lib comdlg32.lib advapi32.lib shell32.lib ole32.lib oleaut32.lib uuid.lib odbc32.lib odbccp32.lib /MANIFEST /ManifestFile:"Debug\task2.exe.intermediate.manifest" /MANIFESTUAC:"level='asInvoker' uiAccess='false'" /DEBUG /PDB:"C:\Users\jashkov.v\Documents\Visual Studio 2010\Projects\0818-tasks-01\Debug\task2.pdb" /SUBSYSTEM:CONSOLE /TLBID:1 /DYNAMICBASE /NXCOMPAT /IMPLIB:"C:\Users\jashkov.v\Documents\Visual Studio 2010\Projects\0818-tasks-01\Debug\task2.lib" /MACHINE:X86 Debug\task2.exe.embed.manifest.res
Debug\2.obj
