^C:\USERS\JASHKOV.V\DOCUMENTS\VISUAL STUDIO 2010\PROJECTS\0818-TASKS-01\HW2_TASK2\DEBUG\2.OBJ|C:\USERS\JASHKOV.V\DOCUMENTS\VISUAL STUDIO 2010\PROJECTS\0818-TASKS-01\HW2_TASK2\DEBUG\HW2_TASK2.EXE.EMBED.MANIFEST.RES
C:\USERS\JASHKOV.V\DOCUMENTS\VISUAL STUDIO 2010\PROJECTS\0818-TASKS-01\DEBUG\HW2_TASK2.ILK
C:\USERS\JASHKOV.V\DOCUMENTS\VISUAL STUDIO 2010\PROJECTS\0818-TASKS-01\DEBUG\HW2_TASK2.EXE
C:\USERS\JASHKOV.V\DOCUMENTS\VISUAL STUDIO 2010\PROJECTS\0818-TASKS-01\HW2_TASK2\DEBUG\HW2_TASK2.EXE.INTERMEDIATE.MANIFEST
C:\USERS\JASHKOV.V\DOCUMENTS\VISUAL STUDIO 2010\PROJECTS\0818-TASKS-01\DEBUG\HW2_TASK2.PDB
